<?xml version="1.0" encoding="UTF-8" standalone="no"?>
<svg
   xmlns:dc="http://purl.org/dc/elements/1.1/"
   xmlns:cc="http://creativecommons.org/ns#"
   xmlns:rdf="http://www.w3.org/1999/02/22-rdf-syntax-ns#"
   xmlns:svg="http://www.w3.org/2000/svg"
   xmlns="http://www.w3.org/2000/svg"
   id="svg5289"
   version="1.1"
   width="128"
   height="128"
   viewBox="0 0 128 128">
  <metadata
     id="metadata5295">
    <rdf:RDF>
      <cc:Work
         rdf:about="">
        <dc:format>image/svg+xml</dc:format>
        <dc:type
           rdf:resource="http://purl.org/dc/dcmitype/StillImage" />
        <dc:title></dc:title>
      </cc:Work>
    </rdf:RDF>
  </metadata>
  <defs
     id="defs5293">
    <filter
       style="color-interpolation-filters:sRGB"
       id="filter5502"
       x="-0.059999999"
       width="1.12"
       y="-0.059999999"
       height="1.12">
      <feGaussianBlur
         stdDeviation="3.5745116"
         id="feGaussianBlur5504" />
    </filter>
  </defs>
  <g
     id="g5515"
     transform="matrix(0.758405,0,0,0.758405,3.3275994,3.3275994)">
    <path
       transform="matrix(1.0517859,0,0,1.0517859,-4.1428702,-4.1428702)"
       id="circle5478"
       d="M 80,8.5097656 C 40.543486,8.5097656 8.5097656,40.543486 8.5097656,80 c 0,39.45651 32.0337204,71.49023 71.4902344,71.49023 39.45651,0 71.49023,-32.03372 71.49023,-71.49023 C 151.49023,40.543486 119.45651,8.5097656 80,8.5097656 Z"
       style="color:#000000;font-style:normal;font-variant:normal;font-weight:normal;font-stretch:normal;font-size:medium;line-height:normal;font-family:sans-serif;text-indent:0;text-align:start;text-decoration:none;text-decoration-line:none;text-decoration-style:solid;text-decoration-color:#000000;letter-spacing:normal;word-spacing:normal;text-transform:none;direction:ltr;block-progression:tb;writing-mode:lr-tb;baseline-shift:baseline;text-anchor:start;white-space:normal;clip-rule:nonzero;display:inline;overflow:visible;visibility:visible;opacity:1;isolation:auto;mix-blend-mode:normal;color-interpolation:sRGB;color-interpolation-filters:linearRGB;solid-color:#000000;solid-opacity:1;fill:#ffff00;fill-opacity:1;fill-rule:nonzero;stroke:none;stroke-width:4.38219452;stroke-linecap:butt;stroke-linejoin:miter;stroke-miterlimit:4;stroke-dasharray:none;stroke-dashoffset:0;stroke-opacity:1;filter:url(#filter5502);color-rendering:auto;image-rendering:auto;shape-rendering:auto;text-rendering:auto;enable-background:accumulate" />
    <circle
       r="69.298233"
       cy="80"
       cx="80"
       id="path5445"
       style="opacity:1;fill:#ffff00;fill-opacity:1;stroke:#000000;stroke-width:4.38219452;stroke-linejoin:miter;stroke-miterlimit:4;stroke-dasharray:none;stroke-opacity:1" />
    <path
       id="path5441"
       d="M 107.58693,127.77518 96.136219,107.94258 89.340998,96.17319 a 18.699474,18.699474 0 0 1 -0.858254,0.492357 18.699474,18.699474 0 0 1 -1.706394,0.763832 18.699474,18.699474 0 0 1 -1.773838,0.588469 18.699474,18.699474 0 0 1 -1.824424,0.409737 18.699474,18.699474 0 0 1 -1.854776,0.224258 18.699474,18.699474 0 0 1 -1.323635,0.04721 18.699474,18.699474 0 0 1 -1.866577,-0.09274 18.699474,18.699474 0 0 1 -1.848031,-0.279902 18.699474,18.699474 0 0 1 -1.810935,-0.462009 18.699474,18.699474 0 0 1 -1.755292,-0.64074 18.699474,18.699474 0 0 1 -1.684472,-0.812728 18.699474,18.699474 0 0 1 -0.376013,-0.231004 l -6.791849,11.76265 -11.460824,19.85115 a 55.237378,55.237378 0 0 0 1.112866,0.68121 55.237378,55.237378 0 0 0 4.970796,2.40278 55.237378,55.237378 0 0 0 5.186626,1.89186 55.237378,55.237378 0 0 0 5.350181,1.36749 55.237378,55.237378 0 0 0 5.459784,0.82452 55.237378,55.237378 0 0 0 5.51374,0.27653 55.237378,55.237378 0 0 0 3.906831,-0.13995 55.237378,55.237378 0 0 0 5.481703,-0.66434 55.237378,55.237378 0 0 0 5.387278,-1.20897 55.237378,55.237378 0 0 0 5.240581,-1.74181 55.237378,55.237378 0 0 0 5.03993,-2.2544 55.237378,55.237378 0 0 0 2.53093,-1.45347 z"
       style="opacity:1;fill:#000000;fill-opacity:1;stroke:none;stroke-width:2;stroke-linejoin:miter;stroke-miterlimit:4;stroke-dasharray:none;stroke-opacity:1" />
    <path
       id="path5435"
       d="m 89.340998,63.820857 a 18.699474,18.699474 0 0 1 1.217407,0.745282 18.699474,18.699474 0 0 1 1.488878,1.131412 18.699474,18.699474 0 0 1 1.367475,1.274737 18.699474,18.699474 0 0 1 1.232583,1.40457 18.699474,18.699474 0 0 1 1.087572,1.519229 18.699474,18.699474 0 0 1 0.93076,1.622085 18.699474,18.699474 0 0 1 0.762144,1.706394 18.699474,18.699474 0 0 1 0.590156,1.773838 18.699474,18.699474 0 0 1 0.409736,1.822738 18.699474,18.699474 0 0 1 0.22426,1.856461 18.699474,18.699474 0 0 1 0.04721,1.321949 l 13.570221,0 22.96716,0 a 55.237378,55.237378 0 0 0 -0.13826,-3.90683 55.237378,55.237378 0 0 0 -0.66436,-5.481704 55.237378,55.237378 0 0 0 -1.20897,-5.387278 55.237378,55.237378 0 0 0 -1.7418,-5.238895 55.237378,55.237378 0 0 0 -2.25439,-5.039929 55.237378,55.237378 0 0 0 -2.74845,-4.790379 55.237378,55.237378 0 0 0 -3.21212,-4.490241 55.237378,55.237378 0 0 0 -3.64379,-4.147952 55.237378,55.237378 0 0 0 -4.04004,-3.763506 55.237378,55.237378 0 0 0 -4.39582,-3.341968 55.237378,55.237378 0 0 0 -3.59489,-2.205496 L 96.134529,52.053153 89.340995,63.820857 Z"
       style="opacity:1;fill:#000000;fill-opacity:1;stroke:none;stroke-width:2;stroke-linejoin:miter;stroke-miterlimit:4;stroke-dasharray:none;stroke-opacity:1" />
    <path
       id="path5431"
       d="m 52.417488,32.220549 a 55.237378,55.237378 0 0 0 -2.262826,1.298343 55.237378,55.237378 0 0 0 -4.490241,3.212133 55.237378,55.237378 0 0 0 -4.147951,3.64379 55.237378,55.237378 0 0 0 -3.763507,4.040037 55.237378,55.237378 0 0 0 -3.341968,4.395817 55.237378,55.237378 0 0 0 -2.886704,4.707756 55.237378,55.237378 0 0 0 -2.401091,4.970796 55.237378,55.237378 0 0 0 -1.893556,5.186626 55.237378,55.237378 0 0 0 -1.365788,5.350181 55.237378,55.237378 0 0 0 -0.824533,5.459784 55.237378,55.237378 0 0 0 -0.27653,5.51374 l 22.970545,0 13.566835,0 a 18.699474,18.699474 0 0 1 0.09442,-1.866578 18.699474,18.699474 0 0 1 0.278215,-1.84803 18.699474,18.699474 0 0 1 0.463694,-1.810935 18.699474,18.699474 0 0 1 0.64074,-1.755292 18.699474,18.699474 0 0 1 0.81273,-1.684473 18.699474,18.699474 0 0 1 0.976286,-1.59342 18.699474,18.699474 0 0 1 1.131412,-1.487192 18.699474,18.699474 0 0 1 1.274736,-1.367475 18.699474,18.699474 0 0 1 1.404571,-1.234268 18.699474,18.699474 0 0 1 1.519229,-1.087574 18.699474,18.699474 0 0 1 0.768889,-0.440087 L 63.868193,52.053153 52.417488,32.220549 Z"
       style="opacity:1;fill:#000000;fill-opacity:1;stroke:none;stroke-width:2;stroke-linejoin:miter;stroke-miterlimit:4;stroke-dasharray:none;stroke-opacity:1" />
    <circle
       r="11.697211"
       cy="80"
       cx="80"
       id="path5375"
       style="opacity:1;fill:#000000;fill-opacity:1;stroke:none;stroke-width:2;stroke-linejoin:miter;stroke-miterlimit:4;stroke-dasharray:none;stroke-opacity:1" />
  </g>
</svg>
